A Y
B X
C Z
~                                                                                
~                                                                                
~                                                                                
~                                                                                
~                                                                                
~                                                                                
~                                                                                
~                                                                                
~                                                                                
~                                                                                
~                                                                                
~                                                                                
~                                                                                

